<svg width="28" height="28" viewBox="0 0 28 28" fill="none" xmlns="http://www.w3.org/2000/svg">
<g clip-path="url(#clip0_274_1152)">
<path d="M1.4 22.8667H3.73333V25.6667C3.73488 26.9547 4.77864 27.9985 6.06667 28H21.9333C23.2214 27.9985 24.2651 26.9547 24.2667 25.6667V22.8667H26.6C27.3732 22.8667 28 22.2399 28 21.4667V16.8C28 16.0268 27.3732 15.4 26.6 15.4H24.2667V12.6C24.2651 11.312 23.2214 10.2682 21.9333 10.2667V7.93333C21.9333 3.55187 18.3815 0 14 0C9.61854 0 6.06667 3.55187 6.06667 7.93333V10.2667C4.77864 10.2682 3.73488 11.312 3.73333 12.6V15.4H1.4C0.626801 15.4 0 16.0268 0 16.8V21.4667C0 22.2399 0.626801 22.8667 1.4 22.8667ZM23.3333 25.6667C23.3333 26.4399 22.7065 27.0667 21.9333 27.0667H6.06667C5.29347 27.0667 4.66667 26.4399 4.66667 25.6667V22.8667H23.3333V25.6667ZM7 7.93333C7 4.06734 10.134 0.933333 14 0.933333C17.866 0.933333 21 4.06734 21 7.93333V10.2667H19.1333V7.93333C19.1333 5.09827 16.8351 2.8 14 2.8C11.1649 2.8 8.86667 5.09827 8.86667 7.93333V10.2667H7V7.93333ZM9.8 10.2667V7.93333C9.8 5.61374 11.6804 3.73333 14 3.73333C16.3196 3.73333 18.2 5.61374 18.2 7.93333V10.2667H9.8ZM4.66667 12.6C4.66667 11.8268 5.29347 11.2 6.06667 11.2H21.9333C22.7065 11.2 23.3333 11.8268 23.3333 12.6V15.4H4.66667V12.6ZM0.933333 16.8C0.933333 16.5423 1.14227 16.3333 1.4 16.3333H26.6C26.8577 16.3333 27.0667 16.5423 27.0667 16.8V21.4667C27.0667 21.7244 26.8577 21.9333 26.6 21.9333H1.4C1.14227 21.9333 0.933333 21.7244 0.933333 21.4667V16.8Z" fill="black"/>
<path d="M1.9457 20.3256C2.01438 20.4286 2.12116 20.5001 2.24255 20.5243C2.36394 20.5486 2.48999 20.5236 2.59296 20.4549L3.26729 20.005V20.5333C3.26729 20.791 3.47623 20.9999 3.73396 20.9999C3.99169 20.9999 4.20063 20.791 4.20063 20.5333V20.005L4.87496 20.4549C5.01368 20.5474 5.19122 20.5589 5.34071 20.485C5.4902 20.4112 5.58893 20.2632 5.59971 20.0968C5.61049 19.9304 5.53168 19.7709 5.39296 19.6783L4.57396 19.1333L5.39156 18.5882C5.53028 18.4957 5.60909 18.3362 5.59831 18.1698C5.58753 18.0034 5.4888 17.8554 5.33931 17.7815C5.18982 17.7076 5.01228 17.7191 4.87356 17.8117L4.20063 18.2615V17.7333C4.20063 17.4755 3.99169 17.2666 3.73396 17.2666C3.47623 17.2666 3.26729 17.4755 3.26729 17.7333V18.2615L2.59296 17.8117C2.37853 17.6686 2.08874 17.7265 1.9457 17.9409C1.80265 18.1554 1.86053 18.4452 2.07496 18.5882L2.89396 19.1333L2.07496 19.6783C1.97197 19.747 1.90049 19.8538 1.87625 19.9752C1.85201 20.0966 1.87699 20.2226 1.9457 20.3256Z" fill="black"/>
<path d="M7.07851 20.3256C7.14719 20.4286 7.25397 20.5001 7.37536 20.5243C7.49675 20.5486 7.6228 20.5236 7.72577 20.4549L8.40011 20.005V20.5333C8.40011 20.791 8.60904 20.9999 8.86677 20.9999C9.12451 20.9999 9.33344 20.791 9.33344 20.5333V20.005L10.0078 20.4549C10.1465 20.5474 10.324 20.5589 10.4735 20.485C10.623 20.4112 10.7217 20.2632 10.7325 20.0968C10.7433 19.9304 10.6645 19.7709 10.5258 19.6783L9.70677 19.1333L10.5244 18.5882C10.6631 18.4957 10.7419 18.3362 10.7311 18.1698C10.7203 18.0034 10.6216 17.8554 10.4721 17.7815C10.3226 17.7076 10.1451 17.7191 10.0064 17.8117L9.33344 18.2615V17.7333C9.33344 17.4755 9.12451 17.2666 8.86677 17.2666C8.60904 17.2666 8.40011 17.4755 8.40011 17.7333V18.2615L7.72577 17.8117C7.51134 17.6686 7.22155 17.7265 7.07851 17.9409C6.93547 18.1554 6.99334 18.4452 7.20777 18.5882L8.02677 19.1333L7.20917 19.6783C7.10596 19.7468 7.03419 19.8535 7.00968 19.9749C6.98518 20.0963 7.00993 20.2225 7.07851 20.3256Z" fill="black"/>
<path d="M17.3441 20.3256C17.4128 20.4286 17.5196 20.5001 17.641 20.5243C17.7624 20.5486 17.8884 20.5236 17.9914 20.4549L18.6657 20.005V20.5333C18.6657 20.791 18.8747 20.9999 19.1324 20.9999C19.3901 20.9999 19.5991 20.791 19.5991 20.5333V20.005L20.2734 20.4549C20.4121 20.5474 20.5897 20.5589 20.7391 20.485C20.8886 20.4112 20.9874 20.2632 20.9981 20.0968C21.0089 19.9304 20.9301 19.7709 20.7914 19.6783L19.9724 19.1333L20.79 18.5882C20.9287 18.4957 21.0075 18.3362 20.9967 18.1698C20.986 18.0034 20.8872 17.8554 20.7377 17.7815C20.5883 17.7076 20.4107 17.7191 20.272 17.8117L19.5991 18.2615V17.7333C19.5991 17.4755 19.3901 17.2666 19.1324 17.2666C18.8747 17.2666 18.6657 17.4755 18.6657 17.7333V18.2615L17.9914 17.8117C17.777 17.6686 17.4872 17.7265 17.3441 17.9409C17.2011 18.1554 17.259 18.4452 17.4734 18.5882L18.2924 19.1333L17.4748 19.6783C17.3716 19.7468 17.2998 19.8535 17.2753 19.9749C17.2508 20.0963 17.2756 20.2225 17.3441 20.3256Z" fill="black"/>
<path d="M12.2113 20.3256C12.28 20.4286 12.3868 20.5001 12.5082 20.5243C12.6296 20.5486 12.7556 20.5236 12.8586 20.4549L13.5329 20.005V20.5333C13.5329 20.791 13.7419 20.9999 13.9996 20.9999C14.2573 20.9999 14.4663 20.791 14.4663 20.5333V20.005L15.1406 20.4549C15.2793 20.5474 15.4568 20.5589 15.6063 20.485C15.7558 20.4112 15.8546 20.2632 15.8653 20.0968C15.8761 19.9304 15.7973 19.7709 15.6586 19.6783L14.8396 19.1333L15.6572 18.5882C15.7959 18.4957 15.8747 18.3362 15.8639 18.1698C15.8532 18.0034 15.7544 17.8554 15.6049 17.7815C15.4554 17.7076 15.2779 17.7191 15.1392 17.8117L14.4663 18.2615V17.7333C14.4663 17.4755 14.2573 17.2666 13.9996 17.2666C13.7419 17.2666 13.5329 17.4755 13.5329 17.7333V18.2615L12.8586 17.8117C12.6442 17.6686 12.3544 17.7265 12.2113 17.9409C12.0683 18.1554 12.1262 18.4452 12.3406 18.5882L13.1596 19.1333L12.342 19.6783C12.2388 19.7468 12.167 19.8535 12.1425 19.9749C12.118 20.0963 12.1427 20.2225 12.2113 20.3256Z" fill="black"/>
<path d="M7.46628 12.1338H6.06628C5.80854 12.1338 5.59961 12.3427 5.59961 12.6005V14.0005C5.59961 14.2582 5.80854 14.4671 6.06628 14.4671C6.32401 14.4671 6.53294 14.2582 6.53294 14.0005V13.0671H7.46628C7.72401 13.0671 7.93294 12.8582 7.93294 12.6005C7.93294 12.3427 7.72401 12.1338 7.46628 12.1338Z" fill="black"/>
<path d="M22.8671 20.9997H25.6671C25.9248 20.9997 26.1337 20.7908 26.1337 20.5331C26.1337 20.2753 25.9248 20.0664 25.6671 20.0664H22.8671C22.6093 20.0664 22.4004 20.2753 22.4004 20.5331C22.4004 20.7908 22.6093 20.9997 22.8671 20.9997Z" fill="black"/>
</g>
<defs>
<clipPath id="clip0_274_1152">
<rect width="28" height="28" fill="white"/>
</clipPath>
</defs>
</svg>
