<svg width="28" height="28" viewBox="0 0 28 28" fill="none" xmlns="http://www.w3.org/2000/svg">
<path d="M23.7973 7.07426C23.4256 6.70266 22.8423 6.64786 22.4078 6.94388C20.7713 8.0594 12.5624 13.6687 11.6802 14.5509C10.4009 15.8303 10.4009 17.912 11.6802 19.1914C12.3199 19.831 13.1602 20.1509 14.0004 20.1509C14.8407 20.1509 15.6809 19.831 16.3207 19.1914C17.2028 18.3091 22.8121 10.1003 23.9277 8.46376C24.2236 8.02937 24.1689 7.44597 23.7973 7.07426ZM14.7738 17.6445C14.3474 18.071 13.6535 18.071 13.2271 17.6445C12.8006 17.2181 12.8006 16.5244 13.2268 16.098C13.5696 15.7592 15.9002 14.0971 18.7677 12.1039C16.7746 14.9714 15.1124 17.3019 14.7738 17.6445Z" fill="black"/>
<path d="M5.04388 21.9583L3.69365 22.617C2.70566 20.8538 2.1875 18.8857 2.1875 16.8711C2.1875 15.395 2.45968 13.9813 2.95641 12.6775L4.50357 13.4196C4.65615 13.4928 4.8172 13.5274 4.97585 13.5274C5.38344 13.5274 5.77473 13.2986 5.9628 12.9065C6.22398 12.3618 5.9943 11.7085 5.44961 11.4472L3.92208 10.7145C5.82066 7.61813 9.10558 5.45934 12.9063 5.1088V6.75385C12.9063 7.35793 13.396 7.8476 14.0001 7.8476C14.6041 7.8476 15.0938 7.35793 15.0938 6.75385V5.10798C16.3969 5.22659 17.6578 5.55844 18.8547 6.09875C19.4051 6.3473 20.053 6.10236 20.3016 5.55193C20.5501 5.00134 20.3053 4.35356 19.7547 4.10501C17.9409 3.28628 16.0048 2.87109 14 2.87109C10.2605 2.87109 6.74477 4.32731 4.10047 6.97156C1.45627 9.61587 0 13.1316 0 16.8711C0 19.6345 0.820203 22.322 2.37196 24.643C2.58098 24.9555 2.92655 25.129 3.28191 25.129C3.44345 25.129 3.60708 25.0931 3.7608 25.0182L6.00299 23.9244C6.54593 23.6596 6.77135 23.0048 6.5065 22.4619C6.24165 21.919 5.58682 21.6936 5.04388 21.9583Z" fill="black"/>
<path d="M26.7663 11.1167C26.5178 10.5662 25.8702 10.3212 25.3194 10.5698C24.7689 10.8184 24.524 11.4662 24.7726 12.0167C25.4629 13.5457 25.8128 15.179 25.8128 16.8714C25.8128 18.889 25.2929 20.8602 24.3021 22.6255L22.8924 21.9542C22.3471 21.6945 21.6944 21.926 21.4346 22.4715C21.1749 23.0168 21.4065 23.6695 21.9519 23.9292L24.2488 25.023C24.3999 25.0949 24.5601 25.1293 24.7184 25.1293C25.0739 25.1293 25.4195 24.9557 25.6283 24.6433C27.1801 22.3223 28.0003 19.6347 28.0003 16.8714C28.0003 14.8666 27.5851 12.9304 26.7663 11.1167Z" fill="black"/>
</svg>
